{
	"name":   "N-Tier Architecture Template",
	"key":    "thp_3ta_template",
	"repo":   "https://gitlab.com/the-humble-programmer-templates/3-tier-architecture-template.git",
	"email":  "kirinnee97@gmail.com",
	"readme": "README.MD"
}
